DS2 HW3
…
2) Least popular names

What is the smallest value of births in the dataset?

babynames_total %>% 
  filter(min_rank(n) <= 1)

# A tibble: 15,477 × 3
   sex   name         n
   <chr> <chr>    <int>
 1 F     Aada         5
 2 F     Aaden        5
 3 F     Aadilynn     5
 4 F     Aafreen      5
 5 F     Aagot        5
 6 F     Aaheli       5
 7 F     Aaiyana      5
 8 F     Aaja         5
 9 F     Aakira       5
10 F     Aakiyah      5
# ℹ 15,467 more rows
…
